{
  "list": {
    "lastUpdate": "15 Dec 2024",
    "diaspora": {
      "population": "324\u00a0643",
      "activeUsers": "21\u00a0369",
      "podsNum": "66"
    },
    "friendica": {
      "population": "20\u00a0904",
      "activeUsers": "5\u00a0079",
      "podsNum": "274"
    },
    "hubzilla": {
      "population": "4\u00a0628",
      "activeUsers": "1\u00a0106",
      "podsNum": "63"
    },
    "mastodon": {
      "population": "9\u00a0018\u00a0699",
      "activeUsers": "1\u00a0832\u00a0078",
      "podsNum": "9\u00a0361"
    },
    "gnusocial": {
      "population": "-432",
      "activeUsers": "163",
      "podsNum": "10"
    },
    "pleroma": {
      "population": "105\u00a0968",
      "activeUsers": "15\u00a0877",
      "podsNum": "859"
    },
    "misskey": {
      "population": "918\u00a0550",
      "activeUsers": "25\u00a0782",
      "podsNum": "1\u00a0096"
    },
    "peertube": {
      "population": "288\u00a0595",
      "activeUsers": "98\u00a0369",
      "podsNum": "928"
    },
    "pixelfed": {
      "population": "272\u00a0010",
      "activeUsers": "63\u00a0555",
      "podsNum": "452"
    },
    "funkwhale": {
      "population": "12\u00a0392",
      "activeUsers": "1\u00a0678",
      "podsNum": "83"
    },
    "writefreely": {
      "population": "177\u00a0166",
      "activeUsers": "38\u00a0985",
      "podsNum": "527"
    },
    "plume": {
      "population": "22\u00a0256",
      "activeUsers": "3",
      "podsNum": "35"
    },
    "mobilizon": {
      "population": "54\u00a0582",
      "activeUsers": "21",
      "podsNum": "104"
    },
    "lemmy": {
      "population": "1\u00a0339\u00a0290",
      "activeUsers": "77\u00a0175",
      "podsNum": "513"
    },
    "gotosocial": {
      "population": "2\u00a0347",
      "activeUsers": "65",
      "podsNum": "967"
    },
    "owncast": {
      "population": "225",
      "activeUsers": "225",
      "podsNum": "225"
    },
    "bookwyrm": {
      "population": "34\u00a0772",
      "activeUsers": "11\u00a0546",
      "podsNum": "93"
    },
    "microblogpub": {
      "population": "38",
      "activeUsers": "0",
      "podsNum": "38"
    },
    "akkoma": {
      "population": "16\u00a0477",
      "activeUsers": "5\u00a0613",
      "podsNum": "512"
    },
    "firefish": {
      "population": "17\u00a0181",
      "activeUsers": "5\u00a0705",
      "podsNum": "120"
    },
    "hometown": {
      "population": "14\u00a0955",
      "activeUsers": "5\u00a0561",
      "podsNum": "134"
    },
    "iceshrimp": {
      "population": "3\u00a0589",
      "activeUsers": "1\u00a0439",
      "podsNum": "127"
    },
    "sharkey": {
      "population": "1\u00a0006\u00a0045",
      "activeUsers": "5\u00a0411",
      "podsNum": "396"
    },
    "mbin": {
      "population": "6\u00a0191",
      "activeUsers": "1\u00a0749",
      "podsNum": "19"
    },
    "fediverse": {
      "population": "13\u00a0661\u00a0071",
      "activeUsers": "2\u00a0218\u00a0554",
      "podsNum": "17\u00a0002"
    }
  }
}